# Blender v2.82 (sub 7) OBJ File: ''
# www.blender.org
mtllib modularBuildings_052.mtl
o modularBuildings_052
v -0.000000 0.468750 -1.000000
v -1.000000 0.000000 -1.000000
v -1.090550 -0.042443 -1.000000
v -1.118770 0.017765 -1.000000
v -0.050000 0.518750 -1.000000
v -0.000000 0.518750 -1.000000
v -0.000000 0.000000 -1.000000
v 0.000000 0.000000 0.000000
v -1.000000 0.000000 0.000000
v 0.000000 0.468750 0.000000
v 0.000000 0.518750 0.000000
v -0.050000 0.518750 0.000000
v -1.118770 0.017765 0.000000
v -1.090550 -0.042443 -0.000000
vt 44.046001 0.699401
vt 1.968500 20.423201
vt 39.370098 0.000000
vt -1.968500 0.000000
vt -0.000000 39.370098
vt -1.968500 39.370098
vt -39.370098 -39.584999
vt -0.000000 6.885910
vt -39.370098 6.885910
vt -0.000000 19.327900
vt -39.370098 16.709999
vt 0.000000 16.709999
vt -39.370098 -0.000000
vt 0.000000 18.454700
vt -1.968500 20.423201
vt 0.000000 -35.647999
vt 39.370098 -39.584999
vt 39.370098 -35.647999
vt 0.000000 0.000000
vt -0.000000 -39.584999
vt -39.370098 19.327900
vt 0.000000 20.423201
vt -44.046001 0.699401
vt -42.934898 -1.671000
vt 0.000000 20.423201
vt 0.000000 18.454700
vt 42.934898 -1.671000
vt -0.000000 -39.584999
vt 0.000000 0.000000
vt 39.370098 0.000000
vt 0.000000 39.370098
vt 0.000000 0.000000
vt 39.370098 18.454700
vt 39.370098 39.370098
vt 39.370098 0.000000
vt 39.370098 20.423201
vn -0.0000 0.0000 -1.0000
vn 0.0000 1.0000 0.0000
vn -0.4244 0.9055 0.0000
vn -0.9055 -0.4244 -0.0000
vn 0.0000 -0.0000 1.0000
vn 0.4244 -0.9055 -0.0000
vn 0.0000 -1.0000 -0.0000
vn 1.0000 0.0000 -0.0000
usemtl Roof
s 1
f 4/1/1 5/2/1 2/3/1
f 12/4/2 6/5/2 5/6/2
f 4/7/3 12/8/3 5/9/3
f 13/10/4 3/11/4 14/12/4
f 9/13/5 10/14/5 12/15/5
f 9/16/6 3/17/6 2/18/6
f 12/4/2 11/19/2 6/5/2
f 4/7/3 13/20/3 12/8/3
f 13/10/4 4/21/4 3/11/4
f 11/22/5 12/15/5 10/14/5
f 12/15/5 13/23/5 9/13/5
f 13/23/5 14/24/5 9/13/5
f 6/25/1 1/26/1 5/2/1
f 1/26/1 2/3/1 5/2/1
f 2/3/1 3/27/1 4/1/1
f 9/16/6 14/28/6 3/17/6
usemtl Brick
f 7/29/1 2/3/1 1/26/1
f 9/30/7 7/31/7 8/32/7
f 8/32/5 10/14/5 9/13/5
f 1/33/8 11/22/8 10/14/8
f 9/30/7 2/34/7 7/31/7
f 8/32/8 7/35/8 1/33/8
f 1/33/8 6/36/8 11/22/8
f 10/14/8 8/32/8 1/33/8
